6306: Case Study 1
…
## # A tibble: 4 x 10
##   beer_name      beer_id    abv   ibu brewery_id style          ounces brewery_name            city    state
##   <chr>            <dbl>  <dbl> <dbl>      <dbl> <chr>           <dbl> <chr>                   <chr>   <chr>
## 1 Wild Trail Pa~    2314 0.057   44          157 American Pale~     12 Greenbrier Valley Brew~ Lewisb~ WV   
## 2 Mothman Black~    2313 0.067   71          157 American Blac~     12 Greenbrier Valley Brew~ Lewisb~ WV   
## 3 Appreciation ~    1784 0.0645  67.6        317 American IPA       16 Iron Hill Brewery & Re~ Wilmin~ DE   
## 4 Greenville Pa~     433 0.055   52          540 American Pale~     12 Twin Lakes Brewing Com~ Greenv~ DE

#which are the low & high ABV beers in UT, WV
beer_brew %>% 
  filter(state == "UT" | state == "WV")

## # A tibble: 28 x 10
##    beer_name        beer_id   abv   ibu brewery_id style            ounces brewery_name         city   state
##    <chr>              <dbl> <dbl> <dbl>      <dbl> <chr>             <dbl> <chr>                <chr>  <chr>
##  1 Bohemian Export~    1607 0.06   23.8        365 Dortmunder / Ex~     12 Bohemian Brewery     Midva~ UT   
##  2 Altus Bohemes A~    1597 0.053  34.1        365 Altbier              12 Bohemian Brewery     Midva~ UT   
##  3 Cherny Bock          344 0.04   31          365 Schwarzbier          12 Bohemian Brewery     Midva~ UT   
##  4 Czech Pilsner         89 0.05   33.8        365 Czech Pilsener       12 Bohemian Brewery     Midva~ UT   
##  5 Viennese Lager        88 0.05   24.4        365 Vienna Lager         12 Bohemian Brewery     Midva~ UT   
##  6 Wild Trail Pale~    2314 0.057  44          157 American Pale A~     12 Greenbrier Valley B~ Lewis~ WV   
##  7 Mothman Black I~    2313 0.067  71          157 American Black ~     12 Greenbrier Valley B~ Lewis~ WV   
##  8 Squeaky Bike Nu~    1476 0.04   29.9        400 American Brown ~     16 Moab Brewery         Moab   UT   
##  9 Dead Horse Amber     902 0.04   20.7        400 American Pale W~     16 Moab Brewery         Moab   UT   
## 10 Rocket Bike Ame~     645 0.04   41          400 California Comm~     16 Moab Brewery         Moab   UT   
## # ... with 18 more rows
…
# All of the beer styles
beer_brew$style <- as.factor(beer_brew$style)

# Most popular styles
beer_brew %>%
  count(style) %>%
  rename(style_count = n) %>%
  arrange(desc(style_count))

## # A tibble: 90 x 2
##    style                          style_count
##    <fct>                                <int>
##  1 American IPA                           424
##  2 American Pale Ale (APA)                245
##  3 American Amber / Red Ale               133
##  4 American Blonde Ale                    108
##  5 American Double / Imperial IPA         105
##  6 American Pale Wheat Ale                 97
##  7 American Brown Ale                      70
##  8 American Porter                         68
##  9 Saison / Farmhouse Ale                  52
## 10 Witbier                                 51
## # ... with 80 more rows
…
# What are the beers in Utah?
beer_brew %>%
  filter(state == "UT")

## # A tibble: 26 x 10
##    beer_name         beer_id   abv   ibu brewery_id style            ounces brewery_name     city      state
##    <chr>               <dbl> <dbl> <dbl>      <dbl> <fct>             <dbl> <chr>            <chr>     <chr>
##  1 Bohemian Export ~    1607 0.06   23.8        365 Dortmunder / Ex~     12 Bohemian Brewery Midvale   UT   
##  2 Altus Bohemes Al~    1597 0.053  34.1        365 Altbier              12 Bohemian Brewery Midvale   UT   
##  3 Cherny Bock           344 0.04   31          365 Schwarzbier          12 Bohemian Brewery Midvale   UT   
##  4 Czech Pilsner          89 0.05   33.8        365 Czech Pilsener       12 Bohemian Brewery Midvale   UT   
##  5 Viennese Lager         88 0.05   24.4        365 Vienna Lager         12 Bohemian Brewery Midvale   UT   
##  6 Squeaky Bike Nut~    1476 0.04   29.9        400 American Brown ~     16 Moab Brewery     Moab      UT   
##  7 Dead Horse Amber      902 0.04   20.7        400 American Pale W~     16 Moab Brewery     Moab      UT   
##  8 Rocket Bike Amer~     645 0.04   41          400 California Comm~     16 Moab Brewery     Moab      UT   
##  9 Johnny's America~     644 0.04   67.6        400 American IPA         16 Moab Brewery     Moab      UT   
## 10 PUNK'N               2310 0.05   10          160 Pumpkin Ale          12 Uinta Brewing C~ Salt Lak~ UT   
## # ... with 16 more rows
…
# Average ABV by style
beer_brew %>%
  group_by(style) %>%
  summarize(
    mean_abv = mean(abv) * 100,
    count = n()
  )

## `summarise()` ungrouping output (override with `.groups` argument)

## # A tibble: 90 x 3
##    style                      mean_abv count
##    <fct>                         <dbl> <int>
##  1 Abbey Single Ale               4.9      2
##  2 Altbier                        5.44    13
##  3 American Adjunct Lager         4.87    18
##  4 American Amber / Red Ale       5.75   133
##  5 American Amber / Red Lager     4.95    29
##  6 American Barleywine            9.9      3
##  7 American Black Ale             6.90    36
##  8 American Blonde Ale            4.96   108
##  9 American Brown Ale             5.79    70
## 10 American Dark Wheat Ale        5.23     7
## # ... with 80 more rows
…
# Average IBU by style
beer_brew %>%
  group_by(style) %>%
  summarize(
    mean_ibu = mean(ibu),
    count = n()
  )

## `summarise()` ungrouping output (override with `.groups` argument)

## # A tibble: 90 x 3
##    style                      mean_ibu count
##    <fct>                         <dbl> <int>
##  1 Abbey Single Ale               22       2
##  2 Altbier                        34.1    13
##  3 American Adjunct Lager         11      18
##  4 American Amber / Red Ale       36.3   133
##  5 American Amber / Red Lager     23.2    29
##  6 American Barleywine            96       3
##  7 American Black Ale             68.9    36
##  8 American Blonde Ale            21.0   108
##  9 American Brown Ale             29.9    70
## 10 American Dark Wheat Ale        27.6     7
## # ... with 80 more rows
…
# American Barleywine is most bitter but also very high in ABU

# Which states have the fewest/smallest variety of styles
beer_brew %>%
  group_by(state, style) %>%
  summarize(count = n()) %>% 
  ungroup()

## `summarise()` regrouping output by 'state' (override with `.groups` argument)

## # A tibble: 967 x 3
##    state style                    count
##    <chr> <fct>                    <int>
##  1 AK    Altbier                      1
##  2 AK    American Amber / Red Ale     2
##  3 AK    American Blonde Ale          3
##  4 AK    American Brown Ale           1
##  5 AK    American IPA                 7
##  6 AK    American Pale Ale (APA)      2
##  7 AK    Cream Ale                    1
##  8 AK    Czech Pilsener               1
##  9 AK    English Pale Ale             1
## 10 AK    Hefeweizen                   1
## # ... with 957 more rows
…
